{
    "shortid": "SJVbqZr9f",
    "name": "OrdersHeader",
    "recipe": "chrome-pdf",
    "engine": "handlebars",
    "chrome": {
        "marginTop": "1.5cm",
        "marginRight": "1.5cm",
        "marginLeft": "1.cm"
    },
    "modificationDate": {
        "$$date": 1533665962075
    },
    "_id": "1d2wU5UoFAtSaXQJ",
    "$entitySet": "templates"
}