{
    "shortid": "BJX1Jw82ce",
    "name": "Orders",
    "creationDate": {
        "$$date": 1533665962189
    },
    "modificationDate": {
        "$$date": 1533665962189
    },
    "_id": "berwJzr6t0IQhqLw",
    "$entitySet": "scripts"
}